@startuml
set namespaceSeparator ::

class "hatchcare::screens::graphs::graph_page.dart::GraphPage" {
  +State<GraphPage> createState()
}

"flutter::src::widgets::framework.dart::StatefulWidget" <|-- "hatchcare::screens::graphs::graph_page.dart::GraphPage"

class "hatchcare::screens::graphs::graph_page.dart::_GraphPageState" {
  +List<bool> enabled
  +responseListStruct? responses
  +void initState()
  +void initStateAsync()
  +void dispose()
  +Widget build()
}

"hatchcare::screens::graphs::graph_page.dart::_GraphPageState" o-- "hatchcare::generated_bindings.dart::responseListStruct"
"flutter::src::widgets::framework.dart::State" <|-- "hatchcare::screens::graphs::graph_page.dart::_GraphPageState"

class "hatchcare::screens::question::widget::question.dart::Question" {
  +questionStruct questionData
  +responseStruct responseData
  +void Function(String) callback
  +State<Question> createState()
}

"hatchcare::screens::question::widget::question.dart::Question" o-- "hatchcare::generated_bindings.dart::questionStruct"
"hatchcare::screens::question::widget::question.dart::Question" o-- "hatchcare::generated_bindings.dart::responseStruct"
"flutter::src::widgets::framework.dart::StatefulWidget" <|-- "hatchcare::screens::question::widget::question.dart::Question"

class "hatchcare::screens::question::widget::question.dart::_QuestionState" {
  +questionStruct questionData
  +void initState()
  +void dispose()
  +Widget build()
}

"hatchcare::screens::question::widget::question.dart::_QuestionState" o-- "hatchcare::generated_bindings.dart::questionStruct"
"flutter::src::widgets::framework.dart::State" <|-- "hatchcare::screens::question::widget::question.dart::_QuestionState"

class "hatchcare::screens::question::widget::question_date.dart::QuestionDate" {
  +questionStruct questionData
  +void Function(dynamic) getAnswer
  +State<QuestionDate> createState()
}

"hatchcare::screens::question::widget::question_date.dart::QuestionDate" o-- "hatchcare::generated_bindings.dart::questionStruct"
"flutter::src::widgets::framework.dart::StatefulWidget" <|-- "hatchcare::screens::question::widget::question_date.dart::QuestionDate"

class "hatchcare::screens::question::widget::question_date.dart::_QuestionDateState" {
  +bool askHour
  +String type
  +void initState()
  +Widget build()
}

"flutter::src::widgets::framework.dart::State" <|-- "hatchcare::screens::question::widget::question_date.dart::_QuestionDateState"

class "hatchcare::screens::question::widget::question_text.dart::QuestionText" {
  +questionStruct? questionData
  +void Function(String) getAnswer
  +Widget build()
}

"hatchcare::screens::question::widget::question_text.dart::QuestionText" o-- "hatchcare::generated_bindings.dart::questionStruct"
"flutter::src::widgets::framework.dart::StatelessWidget" <|-- "hatchcare::screens::question::widget::question_text.dart::QuestionText"

class "hatchcare::screens::question::widget::question_adjectif.dart::QuestionAdjectif" {
  +questionStruct? questionData
  +void Function(String) getAnswer
  +State<QuestionAdjectif> createState()
}

"hatchcare::screens::question::widget::question_adjectif.dart::QuestionAdjectif" o-- "hatchcare::generated_bindings.dart::questionStruct"
"flutter::src::widgets::framework.dart::StatefulWidget" <|-- "hatchcare::screens::question::widget::question_adjectif.dart::QuestionAdjectif"

class "hatchcare::screens::question::widget::question_adjectif.dart::_QuestionAdjectifState" {
  +List<String> adjectifs
  +String? adjectifValue
  +String? subAdjectifValue
  +void initState()
  +void dispose()
  +Widget build()
  +List<String> subAjd()
}

"flutter::src::widgets::framework.dart::State" <|-- "hatchcare::screens::question::widget::question_adjectif.dart::_QuestionAdjectifState"

class "hatchcare::screens::question::widget::question_number.dart::QuestionNumber" {
  +questionStruct? questionData
  +void Function(int) getAnswer
  +State<QuestionNumber> createState()
}

"hatchcare::screens::question::widget::question_number.dart::QuestionNumber" o-- "hatchcare::generated_bindings.dart::questionStruct"
"flutter::src::widgets::framework.dart::StatefulWidget" <|-- "hatchcare::screens::question::widget::question_number.dart::QuestionNumber"

class "hatchcare::screens::question::widget::question_number.dart::_QuestionNumberState" {
  +int min
  +int max
  +int step
  +int value
  +void initState()
  +Widget build()
}

"flutter::src::widgets::framework.dart::State" <|-- "hatchcare::screens::question::widget::question_number.dart::_QuestionNumberState"

class "hatchcare::screens::question::question_page.dart::QuestionPage" {
  +questionStruct? questionData
  +responseStruct? reponseData
  +State<QuestionPage> createState()
}

"hatchcare::screens::question::question_page.dart::QuestionPage" o-- "hatchcare::generated_bindings.dart::questionStruct"
"hatchcare::screens::question::question_page.dart::QuestionPage" o-- "hatchcare::generated_bindings.dart::responseStruct"
"flutter::src::widgets::framework.dart::StatefulWidget" <|-- "hatchcare::screens::question::question_page.dart::QuestionPage"

class "hatchcare::screens::question::question_page.dart::_QuestionPageState" {
  -StateMachineController? _controller
  -void _onRiveInit()
  +Widget build()
}

class "hatchcare::screens::correlation::correlation_page.dart::CorrelationPage" {
  +State<CorrelationPage> createState()
}

"flutter::src::widgets::framework.dart::StatefulWidget" <|-- "hatchcare::screens::correlation::correlation_page.dart::CorrelationPage"

class "hatchcare::screens::correlation::correlation_page.dart::_CorrelationPageState" {
  +responseListStruct? responseList
  +correlationList? correlations
  +bool initialized
  +PageController pageController
  -StateMachineController? _controller
  +void initState()
  +void initAsync()
  +void dispose()
  -void _onRiveInit()
  +Widget build()
}

"hatchcare::screens::correlation::correlation_page.dart::_CorrelationPageState" o-- "hatchcare::generated_bindings.dart::responseListStruct"
"hatchcare::screens::correlation::correlation_page.dart::_CorrelationPageState" o-- "hatchcare::generated_bindings.dart::correlationList"
"hatchcare::screens::correlation::correlation_page.dart::_CorrelationPageState" o-- "flutter::src::widgets::page_view.dart::PageController"

"flutter::src::widgets::framework.dart::State" <|-- "hatchcare::screens::correlation::correlation_page.dart::_CorrelationPageState"

class "hatchcare::screens::correlation::correlation_widget.dart::CorrelationWidget" {
  +correlation correlationData
  +responseListStruct responseList
  +State<CorrelationWidget> createState()
}

"hatchcare::screens::correlation::correlation_widget.dart::CorrelationWidget" o-- "hatchcare::generated_bindings.dart::correlation"
"hatchcare::screens::correlation::correlation_widget.dart::CorrelationWidget" o-- "hatchcare::generated_bindings.dart::responseListStruct"
"flutter::src::widgets::framework.dart::StatefulWidget" <|-- "hatchcare::screens::correlation::correlation_widget.dart::CorrelationWidget"

class "hatchcare::screens::correlation::correlation_widget.dart::_CorrelationWidgetState" {
  +Widget build()
  +dynamic Future()
  +dynamic fetch()
}

"flutter::src::widgets::framework.dart::State" <|-- "hatchcare::screens::correlation::correlation_widget.dart::_CorrelationWidgetState"

class "hatchcare::screens::res.dart::Res" {
  {static} +List<String> welcomMessages
  {static} +String enterText
  {static} +String pleaseAnswer
  {static} +String noDataToDisplay
  {static} +String selectDate
  {static} +String previous
  {static} +String next
  {static} +String correlation
  {static} +double highCorrelation
  {static} +double mediumCorrelation
  {static} +double lowCorrelation
  {static} +double veryLowCorrelation
  {static} +Map<String, String> categoryToFrench
  {static} +dynamic dbPath()
  {static} +dynamic tmpResponsePath()
  {static} +String correlationSentence()
  {static} +String correlationStrength()
}

class "hatchcare::screens::res.dart::Fields" {
  +int index
  {static} +List<Fields> values
  {static} +Fields date
  {static} +Fields noteMood
  {static} +Fields adjective
  {static} +Fields rant
  {static} +Fields sleepBegin
  {static} +Fields sleepEnd
  {static} +Fields sleepQuality
  {static} +Fields sleepPlus
  {static} +Fields mealHour
  {static} +Fields mealQuality
  {static} +Fields mealPlus
}

"hatchcare::screens::res.dart::Fields" o-- "hatchcare::screens::res.dart::Fields"

class "hatchcare::generated_bindings.dart::NativeLibrary" {
  -Pointer<T> Function<T extends NativeType>(String) _lookup
  -Pointer<NativeFunction<Void Function(responseStruct)>> _reponseFreePtr
  -void Function(responseStruct) _reponseFree
  -Pointer<NativeFunction<responseStruct Function()>> _responseCreatePtr
  -responseStruct Function() _responseCreate
  -Pointer<NativeFunction<Void Function(responseStruct, Pointer<Char>)>> _responseSavePtr
  -void Function(responseStruct, Pointer<Char>) _responseSave
  -Pointer<NativeFunction<Void Function(correlation)>> _correlationFreePtr
  -void Function(correlation) _correlationFree
  -Pointer<NativeFunction<Void Function(correlationList)>> _correlationListFreePtr
  -void Function(correlationList) _correlationListFree
  -Pointer<NativeFunction<Pointer<Char> Function(correlation)>> _correlationGetQuestionTypeAPtr
  -Pointer<Char> Function(correlation) _correlationGetQuestionTypeA
  -Pointer<NativeFunction<Pointer<Char> Function(correlation)>> _correlationGetQuestionTypeBPtr
  -Pointer<Char> Function(correlation) _correlationGetQuestionTypeB
  -Pointer<NativeFunction<Int Function(correlation)>> _correlationGetIsAdjectivePtr
  -int Function(correlation) _correlationGetIsAdjective
  -Pointer<NativeFunction<Pointer<Char> Function(correlation)>> _correlationGetAdjectiveCategoryPtr
  -Pointer<Char> Function(correlation) _correlationGetAdjectiveCategory
  -Pointer<NativeFunction<Double Function(correlation)>> _correlationGetCoefficientPtr
  -double Function(correlation) _correlationGetCoefficient
  -Pointer<NativeFunction<Int Function(correlation)>> _correlationGetLagPtr
  -int Function(correlation) _correlationGetLag
  -Pointer<NativeFunction<Void Function(responseListStruct)>> _responsesFreePtr
  -void Function(responseListStruct) _responsesFree
  -Pointer<NativeFunction<Void Function(intListStruct)>> _intListFreePtr
  -void Function(intListStruct) _intListFree
  -Pointer<NativeFunction<Void Function(longList)>> _longListFreePtr
  -void Function(longList) _longListFree
  -Pointer<NativeFunction<longList Function(responseListStruct)>> _responsesGetDatePtr
  -longList Function(responseListStruct) _responsesGetDate
  -Pointer<NativeFunction<Void Function(stringArrayStruct)>> _stringArrayFreePtr
  -void Function(stringArrayStruct) _stringArrayFree
  -Pointer<NativeFunction<Void Function(responseListStruct, responseStruct)>> _responsesAddResponsePtr
  -void Function(responseListStruct, responseStruct) _responsesAddResponse
  -Pointer<NativeFunction<Void Function(responseListStruct, Pointer<Char>)>> _responsesSavePtr
  -void Function(responseListStruct, Pointer<Char>) _responsesSave
  -Pointer<NativeFunction<responseListStruct Function()>> _responsesCreatePtr
  -responseListStruct Function() _responsesCreate
  -Pointer<NativeFunction<responseListStruct Function(Pointer<Char>)>> _responsesFromFilePtr
  -responseListStruct Function(Pointer<Char>) _responsesFromFile
  -Pointer<NativeFunction<intListStruct Function(responseListStruct, Pointer<Char>)>> _responsesGetIntArrayPtr
  -intListStruct Function(responseListStruct, Pointer<Char>) _responsesGetIntArray
  -Pointer<NativeFunction<stringArrayStruct Function(responseListStruct, Pointer<Char>)>> _responsesGetStringArrayPtr
  -stringArrayStruct Function(responseListStruct, Pointer<Char>) _responsesGetStringArray
  -Pointer<NativeFunction<correlationList Function(responseListStruct)>> _responsesGetCorrelationArrayPtr
  -correlationList Function(responseListStruct) _responsesGetCorrelationArray
  -Pointer<NativeFunction<Void Function(nextQuestionStruct)>> _nextQuestionFreePtr
  -void Function(nextQuestionStruct) _nextQuestionFree
  -Pointer<NativeFunction<Void Function(Pointer<Char>)>> _freeCharPtr
  -void Function(Pointer<Char>) _freeChar
  -Pointer<NativeFunction<questionStruct Function()>> _questionGetFirstPtr
  -questionStruct Function() _questionGetFirst
  -Pointer<NativeFunction<Pointer<Char> Function(questionStruct)>> _questionGetQuestionTypePtr
  -Pointer<Char> Function(questionStruct) _questionGetQuestionType
  -Pointer<NativeFunction<Pointer<Char> Function(questionStruct)>> _questionGetQuestionTextPtr
  -Pointer<Char> Function(questionStruct) _questionGetQuestionText
  -Pointer<NativeFunction<Int Function(questionStruct)>> _questionGetDatePrecisionPtr
  -int Function(questionStruct) _questionGetDatePrecision
  -Pointer<NativeFunction<nextQuestionStruct Function(questionStruct, Int, responseStruct)>> _questionAnswerQuestionIntPtr
  -nextQuestionStruct Function(questionStruct, int, responseStruct) _questionAnswerQuestionInt
  -Pointer<NativeFunction<Int Function(questionStruct)>> _questionGetHourPrecisionPtr
  -int Function(questionStruct) _questionGetHourPrecision
  -Pointer<NativeFunction<nextQuestionStruct Function(questionStruct, Pointer<Char>, responseStruct)>> _questionAnswerQuestionStringPtr
  -nextQuestionStruct Function(questionStruct, Pointer<Char>, responseStruct) _questionAnswerQuestionString
  -Pointer<NativeFunction<nextQuestionStruct Function(questionStruct, Int, responseStruct)>> _questionAnswerQuestionDatePtr
  -nextQuestionStruct Function(questionStruct, int, responseStruct) _questionAnswerQuestionDate
  -Pointer<NativeFunction<stringArrayStruct Function()>> _adjectiveGetPtr
  -stringArrayStruct Function() _adjectiveGet
  -Pointer<NativeFunction<stringArrayStruct Function(Pointer<Char>)>> _adjectivesGetSubPtr
  -stringArrayStruct Function(Pointer<Char>) _adjectivesGetSub
  -Pointer<NativeFunction<Int Function(questionStruct)>> _questionNumberGetMaxPtr
  -int Function(questionStruct) _questionNumberGetMax
  -Pointer<NativeFunction<Int Function(questionStruct)>> _questionNumberGetMinPtr
  -int Function(questionStruct) _questionNumberGetMin
  -Pointer<NativeFunction<Int Function(questionStruct)>> _questionNumberGetStepPtr
  -int Function(questionStruct) _questionNumberGetStep
  +void reponseFree()
  +responseStruct responseCreate()
  +void responseSave()
  +void correlationFree()
  +void correlationListFree()
  +Pointer<Char> correlationGetQuestionTypeA()
  +Pointer<Char> correlationGetQuestionTypeB()
  +int correlationGetIsAdjective()
  +Pointer<Char> correlationGetAdjectiveCategory()
  +double correlationGetCoefficient()
  +int correlationGetLag()
  +void responsesFree()
  +void intListFree()
  +void longListFree()
  +longList responsesGetDate()
  +void stringArrayFree()
  +void responsesAddResponse()
  +void responsesSave()
  +responseListStruct responsesCreate()
  +responseListStruct responsesFromFile()
  +intListStruct responsesGetIntArray()
  +stringArrayStruct responsesGetStringArray()
  +correlationList responsesGetCorrelationArray()
  +void nextQuestionFree()
  +void freeChar()
  +questionStruct questionGetFirst()
  +Pointer<Char> questionGetQuestionType()
  +Pointer<Char> questionGetQuestionText()
  +int questionGetDatePrecision()
  +nextQuestionStruct questionAnswerQuestionInt()
  +int questionGetHourPrecision()
  +nextQuestionStruct questionAnswerQuestionString()
  +nextQuestionStruct questionAnswerQuestionDate()
  +stringArrayStruct adjectiveGet()
  +stringArrayStruct adjectivesGetSub()
  +int questionNumberGetMax()
  +int questionNumberGetMin()
  +int questionNumberGetStep()
}

class "hatchcare::generated_bindings.dart::responseStruct" {
  +Pointer<Void> obj
}




class "hatchcare::generated_bindings.dart::correlation" {
  +Pointer<Void> obj
}




class "hatchcare::generated_bindings.dart::correlationList" {
  +Pointer<correlation> correlations
  +int size
}




class "hatchcare::generated_bindings.dart::responseListStruct" {
  +Pointer<Void> obj
}




class "hatchcare::generated_bindings.dart::intListStruct" {
  +Pointer<Int> data
  +int size
}




class "hatchcare::generated_bindings.dart::longList" {
  +Pointer<Long> data
  +int size
}




class "hatchcare::generated_bindings.dart::stringArrayStruct" {
  +Pointer<Pointer<Char>> array
  +int len
}




class "hatchcare::generated_bindings.dart::questionStruct" {
  +Pointer<Void> obj
}




class "hatchcare::generated_bindings.dart::nextQuestionStruct" {
  +Pointer<questionStruct> question
  +Pointer<Char> animation
}





class "hatchcare::main.dart::MyApp" {
  +Widget build()
}

"flutter::src::widgets::framework.dart::StatelessWidget" <|-- "hatchcare::main.dart::MyApp"

class "hatchcare::main.dart::HomePage" {
  +State<HomePage> createState()
}

"flutter::src::widgets::framework.dart::StatefulWidget" <|-- "hatchcare::main.dart::HomePage"

class "hatchcare::main.dart::_HomePageState" {
  -StateMachineController? _controller
  -void _onRiveInit()
  +Widget build()
}



@enduml
